Turnover with Employer health Analysis
…
employers <- employers %>% 
  mutate(across(employerId, as.integer))

prevEmp_sf <- employers %>%
  filter(employerId %in% transitionTable$previous_employer ) %>%
  mutate(empWorkinMultiplePlaces_previous_groupby$no.ofempLeft) %>%
  dplyr::rename("no.ofempLeft" = "empWorkinMultiplePlaces_previous_groupby$no.ofempLeft")
prevEmp_sf

Simple feature collection with 91 features and 3 fields
Geometry type: POINT
Dimension:     XY
Bounding box:  xmin: -4024.211 ymin: 2001.477 xmax: 2130.281 ymax: 7836.546
CRS:           NA
# A tibble: 91 x 4
   employerId             location buildingId no.ofempLeft
        <int>              <POINT> <chr>             <int>
 1        407  (1105.263 3730.801) 1033                  3
 2        411  (916.9315 4292.959) 527                   3
 3        420  (1677.415 4234.689) 795                   3
 4        429  (715.9087 4418.132) 964                   3
 5        430  (707.1112 2001.477) 304                   3
 6        434  (800.6343 4103.165) 150                   3
 7        438   (2130.281 4828.02) 972                   3
 8        829 (-1683.979 4166.346) 411                   3
 9        837 (-2236.826 5274.275) 17                    2
10        843  (-2330.422 2944.72) 869                   2
# ... with 81 more rows

write_csv(prevEmp_sf,"prevEmp_sf.csv")
recntEmp_sf <- employers %>%
  filter(employerId %in% transitionTable$recent_employer )%>%
  mutate(empWorkinMultiplePlaces_latest_groupby$no.ofempShifted) %>%
  dplyr::rename("no.ofempShifted" = "empWorkinMultiplePlaces_latest_groupby$no.ofempShifted")
recntEmp_sf

Simple feature collection with 63 features and 3 fields
Geometry type: POINT
Dimension:     XY
Bounding box:  xmin: -3864.511 ymin: 1033.181 xmax: 2130.281 ymax: 7156.152
CRS:           NA
# A tibble: 63 x 4
   employerId             location buildingId no.ofempShifted
        <int>              <POINT> <chr>                <int>
 1        389   (1749.108 4023.66) 1020                    14
 2        397   (1499.32 4304.553) 351                     13
 3        407  (1105.263 3730.801) 1033                    11
 4        409   (1207.49 4007.886) 225                      5
 5        413   (917.119 2102.895) 354                      4
 6        420  (1677.415 4234.689) 795                      3
 7        425 (-328.8906 1795.108) 946                      3
 8        429  (715.9087 4418.132) 964                      3
 9        433  (318.9497 1033.181) 516                      3
10        435  (1122.745 4383.067) 34                       2
# ... with 53 more rows
…
switchEmployeesAllDetails <- switchEmployeesAllDetails %>%
  inner_join(x=transitionTablewithPay,
             y=transitionEmpDetails,
             by="participantId") %>%
  mutate(payDiff = recentPay - prevPay)

 switchEmployeesAllDetails <- switchEmployeesAllDetails %>%
   mutate(payStatus = case_when(payDiff > 0 ~ "Pay Increase",
            payDiff < 0 ~ "Pay Decrease",
            TRUE ~ "Same Pay"))
 
switchEmployeesAllDetails

# A tibble: 126 x 15
# Groups:   participantId [126]
   participantId previous_employer prevPay recent_employer recentPay
           <dbl>             <dbl>   <dbl>           <dbl>     <dbl>
 1            30               407    587.             876      730.
 2            40               420    475.             862      490.
 3            44               430    473.             409      523.
 4           127               434    613.             389      740.
 5           141               429   1299.             837      674.
 6           142               411    791.             835      431.
 7           154               438    705.            1332      729.
 8           161               434    613.            1774      877.
 9           256               860    491.             409      523.
10           262               869    638.            1305      513.
# ... with 116 more rows, and 10 more variables: householdSize <dbl>,
#   haveKids <lgl>, age <dbl>, educationLevel <chr>,
#   interestGroup <chr>, joviality <dbl>, jovialityGroup <fct>,
#   ageGroup <fct>, payDiff <dbl>, payStatus <chr>
…
